Course Notes | Text Mining with R | DataCamp
…
Peter

2019-05-26

Senetiment Analysis

While word counts and visualizations suggest something about the content, we can do more. In this chapter, we move beyond word counts alone to analyze the sentiment or emotional valence of text.

Sentiment dictionaries

Bing dictionary

get_sentiments("bing")
## # A tibble: 6,788 x 2
##    word        sentiment
##    <chr>       <chr>    
##  1 2-faced     negative 
##  2 2-faces     negative 
##  3 a+          positive 
##  4 abnormal    negative 
##  5 abolish     negative 
##  6 abominable  negative 
##  7 abominably  negative 
##  8 abominate   negative 
##  9 abomination negative 
## 10 abort       negative 
## #  with 6,778 more rows

get_sentiments("bing") %>% 
  count(sentiment)
## # A tibble: 2 x 2
##   sentiment     n
##   <chr>     <int>
## 1 negative   4782
## 2 positive   2006

Afinn dictionary

get_sentiments("afinn")
## # A tibble: 2,476 x 2
##    word       score
##    <chr>      <int>
##  1 abandon       -2
##  2 abandoned     -2
##  3 abandons      -2
##  4 abducted      -2
##  5 abduction     -2
##  6 abductions    -2
##  7 abhor         -3
##  8 abhorred      -3
##  9 abhorrent     -3
## 10 abhors        -3
## #  with 2,466 more rows
…
Appending dictionaries

Using inner_join()

tidy_review %>% 
  inner_join(get_sentiments("loughran"))
## Joining, by = "word"
## # A tibble: 3,960 x 6
##       id Date     Product                    Stars word      sentiment  
##    <int> <chr>    <chr>                      <dbl> <chr>     <chr>      
##  1     5 12/22/15 iRobot Roomba 650 for Pets     5 slow      negative   
##  2     5 12/22/15 iRobot Roomba 650 for Pets     5 easily    positive   
##  3     5 12/22/15 iRobot Roomba 650 for Pets     5 random    uncertainty
##  4     5 12/22/15 iRobot Roomba 650 for Pets     5 easy      positive   
##  5     5 12/22/15 iRobot Roomba 650 for Pets     5 easy      positive   
##  6     5 12/22/15 iRobot Roomba 650 for Pets     5 easy      positive   
##  7     6 12/27/15 iRobot Roomba 650 for Pets     5 invention positive   
##  8     7 8/17/15  iRobot Roomba 650 for Pets     1 damage    negative   
##  9     7 8/17/15  iRobot Roomba 650 for Pets     1 damage    negative   
## 10     7 8/17/15  iRobot Roomba 650 for Pets     1 justice   litigious  
## #  with 3,950 more rows
…
sentiment_review %>% 
  count(word, sentiment) %>% 
  arrange(desc(n))
## # A tibble: 598 x 3
##    word      sentiment       n
##    <chr>     <chr>       <int>
##  1 easy      positive      297
##  2 happy     positive      107
##  3 easier    positive       97
##  4 easily    positive       92
##  5 perfect   positive       87
##  6 random    uncertainty    81
##  7 impressed positive       77
##  8 excellent positive       58
##  9 trouble   negative       58
## 10 fantastic positive       56
## #  with 588 more rows
…
